\contentsline {section}{\numberline {1}Introduction}{2}{}%
\contentsline {section}{\numberline {2}Structure et choix techniques}{2}{}%
\contentsline {subsection}{\numberline {2.1}Activités}{2}{}%
\contentsline {subsection}{\numberline {2.2}Classe Utilitaires}{2}{}%
\contentsline {subsection}{\numberline {2.3}Stockage des données}{3}{}%
\contentsline {section}{\numberline {3}Déroulement de l'Application}{4}{}%
\contentsline {section}{\numberline {4}Conclusion}{7}{}%
