\relax 
\@writefile{toc}{\contentsline {section}{\numberline {1}Introduction}{2}{}\protected@file@percent }
\@writefile{toc}{\contentsline {section}{\numberline {2}Structure et choix techniques}{2}{}\protected@file@percent }
\@writefile{toc}{\contentsline {subsection}{\numberline {2.1}Activités}{2}{}\protected@file@percent }
\@writefile{toc}{\contentsline {subsection}{\numberline {2.2}Classe Utilitaires}{2}{}\protected@file@percent }
\@writefile{toc}{\contentsline {subsection}{\numberline {2.3}Stockage des données}{3}{}\protected@file@percent }
\@writefile{toc}{\contentsline {section}{\numberline {3}Déroulement de l'Application}{4}{}\protected@file@percent }
\@writefile{lof}{\contentsline {figure}{\numberline {1}{\ignorespaces vue de MainActivity}}{5}{}\protected@file@percent }
\@writefile{lof}{\contentsline {figure}{\numberline {2}{\ignorespaces Déroulement des questionnaires}}{6}{}\protected@file@percent }
\@writefile{toc}{\contentsline {section}{\numberline {4}Conclusion}{7}{}\protected@file@percent }
\gdef \@abspage@last{9}
